<?xml version="1.0" encoding="UTF-8" standalone="no"?>
<svg
   xmlns:dc="http://purl.org/dc/elements/1.1/"
   xmlns:cc="http://creativecommons.org/ns#"
   xmlns:rdf="http://www.w3.org/1999/02/22-rdf-syntax-ns#"
   xmlns:svg="http://www.w3.org/2000/svg"
   xmlns="http://www.w3.org/2000/svg"
   xmlns:sodipodi="http://sodipodi.sourceforge.net/DTD/sodipodi-0.dtd"
   xmlns:inkscape="http://www.inkscape.org/namespaces/inkscape"
   id="svg19258"
   version="1.1"
   viewBox="0 0 152 21.999922"
   height="21.999922"
   width="152"
   sodipodi:docname="badge (2).svg"
   inkscape:version="1.0.2 (e86c870879, 2021-01-15)">
  <sodipodi:namedview
     id="namedview12"
     pagecolor="#505050"
     bordercolor="#ffffff"
     borderopacity="1"
     inkscape:pageshadow="0"
     inkscape:pageopacity="0"
     inkscape:pagecheckerboard="1"
     showgrid="false"
     inkscape:object-nodes="false"
     inkscape:snap-others="false"
     inkscape:snap-bbox="true"
     inkscape:snap-bbox-midpoints="false"
     inkscape:bbox-nodes="true"
     inkscape:current-layer="g6267"
     inkscape:document-rotation="0"
     inkscape:zoom="4"
     inkscape:cx="34.616039"
     inkscape:cy="50.944389"
     inkscape:window-width="2560"
     inkscape:window-height="1376"
     inkscape:window-x="0"
     inkscape:window-y="0"
     inkscape:window-maximized="1">
    <inkscape:grid
       type="xygrid"
       id="grid5901" />
  </sodipodi:namedview>
  <defs
     id="defs19252">
    <clipPath
       clipPathUnits="userSpaceOnUse"
       id="clipPath6300">
      <rect
         ry="6"
         rx="6"
         y="1.7675782e-06"
         x="0"
         height="21.999922"
         width="152"
         id="rect6302"
         style="vector-effect:none;fill:#f66151;fill-opacity:1;stroke:none;stroke-width:30.9399;stroke-linecap:round;stroke-linejoin:round;stroke-miterlimit:4;stroke-dasharray:none;stroke-dashoffset:0;stroke-opacity:1" />
    </clipPath>
  </defs>
  <metadata
     id="metadata19255">
    <rdf:RDF>
      <cc:Work
         rdf:about="">
        <dc:format>image/svg+xml</dc:format>
        <dc:type
           rdf:resource="http://purl.org/dc/dcmitype/StillImage" />
        <dc:title />
      </cc:Work>
    </rdf:RDF>
  </metadata>
  <g
     id="g6267"
     clip-path="url(#clipPath6300)">
    <rect
       style="fill:#26a269;stroke-width:2.33758;stop-color:#000000"
       id="rect6103"
       width="153"
       height="22"
       x="0"
       y="0"
       ry="0" />
    <g
       aria-label="GNOME Circle"
       id="text5684"
       style="font-weight:900;font-size:11.8369px;line-height:1.25;font-family:'Red Hat Display';-inkscape-font-specification:'Red Hat Display, Heavy';text-align:center;letter-spacing:0px;word-spacing:0px;text-anchor:middle;fill:#edfdf0;stroke-width:0.14341;fill-opacity:1"
       transform="translate(-4,0.4399023)">
      <path
         d="m 57.641105,10.679531 v -0.591845 h -4.438838 v 1.763698 h 2.237174 c -0.236738,0.769399 -1.006136,1.302059 -1.964925,1.302059 -1.361243,0 -2.379217,-1.041647 -2.379217,-2.426564 0,-1.3730804 0.982463,-2.4028907 2.308196,-2.4028907 0.828583,0 1.538797,0.355107 2.083294,1.0416472 L 56.919054,8.0754134 C 56.125982,7.069277 54.812086,6.4537582 53.403495,6.4537582 c -2.473912,0 -4.403327,1.8702301 -4.403327,4.2731208 0,2.402891 1.941251,4.273121 4.438837,4.273121 2.426565,0 4.2021,-1.822883 4.2021,-4.320469 z"
         id="path10897"
         style="fill:#edfdf0;fill-opacity:1" />
      <path
         d="m 58.718257,6.5839641 v 8.2858299 h 1.917578 V 9.8746222 l 3.882503,4.9951718 h 1.799209 V 6.5839641 H 64.399969 V 11.389745 L 60.635835,6.5839641 Z"
         id="path10899"
         style="fill:#edfdf0;fill-opacity:1" />
      <path
         d="m 76.2487,10.726879 c 0,-2.3910538 -1.941251,-4.2731208 -4.427,-4.2731208 -2.485749,0 -4.427001,1.882067 -4.427001,4.2731208 0,2.391054 1.941252,4.273121 4.427001,4.273121 2.485749,0 4.427,-1.882067 4.427,-4.273121 z m -2.095131,0 c 0,1.37308 -1.006137,2.402891 -2.331869,2.402891 -1.325733,0 -2.33187,-1.029811 -2.33187,-2.402891 0,-1.3730804 1.006137,-2.4028907 2.33187,-2.4028907 1.325732,0 2.331869,1.0298103 2.331869,2.4028907 z"
         id="path10901"
         style="fill:#edfdf0;fill-opacity:1" />
      <path
         d="m 81.918564,14.277949 2.722487,-5.0543563 v 5.6462013 h 1.917578 V 6.5839641 H 83.990022 L 81.942238,10.490141 79.894454,6.5839641 h -2.568607 v 8.2858299 h 1.87023 V 9.1999189 Z"
         id="path10903"
         style="fill:#edfdf0;fill-opacity:1" />
      <path
         d="m 87.931707,14.869794 h 6.581316 v -1.763698 h -4.54537 v -1.562471 h 2.971062 V 9.8391115 H 89.967653 V 8.3476621 h 4.498022 v -1.763698 h -6.533968 z"
         id="path10905"
         style="fill:#edfdf0;fill-opacity:1" />
      <path
         d="m 102.24251,13.106096 c -1.38492,0 -2.426565,-1.02981 -2.426565,-2.379217 0,-1.3730804 1.017975,-2.4028907 2.355545,-2.4028907 0.84042,0 1.56247,0.3669439 2.14248,1.1008317 l 1.37308,-1.3494066 c -0.75756,-0.9824626 -2.14248,-1.6216552 -3.51556,-1.6216552 -2.509425,0 -4.450676,1.8583932 -4.450676,4.2731208 0,2.402891 1.929415,4.261284 4.450676,4.261284 1.32573,0 2.68697,-0.627356 3.45637,-1.597982 l -1.33757,-1.313895 c -0.55633,0.68654 -1.24287,1.02981 -2.04778,1.02981 z"
         id="path10907"
         style="fill:#edfdf0;fill-opacity:1" />
      <path
         d="m 107.35605,8.0280658 c 0.58,0 1.05348,-0.473476 1.05348,-1.053484 0,-0.5800081 -0.47348,-1.0534841 -1.05348,-1.0534841 -0.58001,0 -1.05349,0.473476 -1.05349,1.0534841 0,0.580008 0.47348,1.053484 1.05349,1.053484 z m 0.95878,0.5800081 h -1.91757 v 6.2617201 h 1.91757 z"
         id="path10909"
         style="fill:#edfdf0;fill-opacity:1" />
      <path
         d="m 109.49851,14.869794 h 1.91758 v -3.977198 c 0.3196,-0.49715 0.85226,-0.793073 1.45594,-0.793073 0.33143,0 0.66287,0.07102 0.91144,0.189391 V 8.6199108 c -0.16571,-0.1065321 -0.3551,-0.1420428 -0.72205,-0.1538797 -0.6747,0 -1.23104,0.2722487 -1.64533,0.7693985 V 8.6080739 h -1.91758 z"
         id="path10911"
         style="fill:#edfdf0;fill-opacity:1" />
      <path
         d="m 117.50024,13.330997 c -0.86409,0 -1.50329,-0.674703 -1.50329,-1.586145 0,-0.911441 0.62736,-1.597981 1.45594,-1.597981 0.55634,0 0.9943,0.224901 1.43227,0.722051 l 1.17185,-1.2192009 c -0.65103,-0.7338878 -1.62165,-1.1600162 -2.65146,-1.1600162 -1.87023,0 -3.31434,1.420428 -3.31434,3.2551471 0,1.83472 1.44411,3.243311 3.31434,3.243311 0.9943,0 1.95308,-0.426129 2.59228,-1.148179 l -1.13635,-1.18369 c -0.41429,0.461639 -0.84042,0.674703 -1.36124,0.674703 z"
         id="path10913"
         style="fill:#edfdf0;fill-opacity:1" />
      <path
         d="m 122.67297,6.1696726 -1.91758,0.4142915 v 8.2858299 h 1.91758 z"
         id="path10915"
         style="fill:#edfdf0;fill-opacity:1" />
      <path
         d="m 129.59754,14.041211 -1.26655,-1.124506 c -0.29592,0.30776 -0.73388,0.473476 -1.25471,0.473476 -0.72205,0 -1.29022,-0.402454 -1.53879,-0.994299 H 130 v -0.473476 c 0,-1.9767624 -1.32574,-3.4208642 -3.16046,-3.4208642 -1.83471,0 -3.26698,1.420428 -3.26698,3.2433102 0,1.822883 1.49145,3.243311 3.40903,3.243311 1.04164,0 1.82288,-0.284086 2.61595,-0.946952 z m -2.79351,-3.977198 c 0.61552,0 1.11267,0.390617 1.3139,0.994299 h -2.61596 c 0.1894,-0.627356 0.66287,-0.994299 1.30206,-0.994299 z"
         id="path10917"
         style="fill:#edfdf0;fill-opacity:1" />
    </g>
    <g
       id="g11066"
       transform="matrix(0.73220243,0,0,0.73220243,9.6471171,2.5718736)"
       style="fill:#edfdf0;fill-opacity:1;stroke-width:1.36574">
      <path
         d="m 17.160607,-8.1995505 a 19.71,19.71 0 0 0 -19.668216,19.7100015 19.71,19.71 0 0 0 19.71,19.710305 19.71,19.71 0 0 0 19.71,-19.710305 19.71,19.71 0 0 0 -19.71,-19.7100015 19.71,19.71 0 0 0 -0.04178,0 z m 0.03751,3.9872002 a 15.7228,15.7228 0 0 1 0.0043,0 A 15.7228,15.7228 0 0 1 32.925496,11.510451 15.7228,15.7228 0 0 1 17.202391,27.233556 15.7228,15.7228 0 0 1 1.4795913,11.510451 15.7228,15.7228 0 0 1 17.198121,-4.2123503 Z"
         id="path8-3"
         style="fill:#edfdf0;fill-opacity:1;stroke-width:0.416545" />
      <path
         d="M 17.170977,-0.53685525 A 12.047304,12.047304 0 0 0 5.154782,11.510451 12.047304,12.047304 0 0 0 17.202391,23.55806 12.047304,12.047304 0 0 0 29.25,11.510756 12.047304,12.047304 0 0 0 17.202696,-0.53685525 a 12.047304,12.047304 0 0 0 -0.03172,0 z m 0.03141,4.31507015 a 7.7316245,7.7316245 0 0 1 7.731624,7.7322361 7.7316245,7.7316245 0 0 1 -7.731624,7.732539 7.7316245,7.7316245 0 0 1 -7.732234,-7.731624 7.7316245,7.7316245 0 0 1 7.732234,-7.7331511 z"
         id="path10-6"
         style="fill:#edfdf0;fill-opacity:1;stroke-width:0.416545" />
    </g>
  </g>
</svg>
