<?xml version="1.0" encoding="UTF-8" standalone="no"?>
<svg
   width="16"
   height="16"
   version="1.1"
   id="svg24"
   sodipodi:docname="favicon.svg"
   inkscape:version="1.1.2 (0a00cf5339, 2022-02-04)"
   xmlns:inkscape="http://www.inkscape.org/namespaces/inkscape"
   xmlns:sodipodi="http://sodipodi.sourceforge.net/DTD/sodipodi-0.dtd"
   xmlns="http://www.w3.org/2000/svg"
   xmlns:svg="http://www.w3.org/2000/svg">
  <defs
     id="defs28" />
  <sodipodi:namedview
     id="namedview26"
     pagecolor="#505050"
     bordercolor="#ffffff"
     borderopacity="1"
     inkscape:pageshadow="0"
     inkscape:pageopacity="0"
     inkscape:pagecheckerboard="1"
     showgrid="false"
     width="16px"
     inkscape:current-layer="svg24" />
  <g
     id="g356"
     transform="matrix(-0.18029387,0,0,0.18029387,18.788425,-1.068241)">
    <circle
       fill="#26a269"
       cx="59.838001"
       cy="50.297001"
       r="44.372002"
       id="circle4" />
    <g
       fill="#ffffff"
       id="g22">
      <g
         style="line-height:1.25;-inkscape-font-specification:'Red Hat Display, Heavy';font-variant-ligatures:normal;font-variant-caps:normal;font-variant-numeric:normal;font-variant-east-asian:normal"
         id="g12" />
      <path
         d="m 59.882,12.898 a 37.55,37.55 0 0 0 -37.47,37.55 37.55,37.55 0 0 0 37.55,37.55 37.55,37.55 0 0 0 37.55,-37.55 37.55,37.55 0 0 0 -37.55,-37.55 37.55,37.55 0 0 0 -0.08,0 z m 0.072,7.596 a 29.954,29.954 0 0 1 0.008,0 A 29.954,29.954 0 0 1 89.916,50.448 29.954,29.954 0 0 1 59.962,80.402 29.954,29.954 0 0 1 30.008,50.448 29.954,29.954 0 0 1 59.954,20.494 Z"
         id="path14" />
      <path
         d="M 59.902,27.496 A 22.952,22.952 0 0 0 37.01,50.448 22.952,22.952 0 0 0 59.962,73.4 22.952,22.952 0 0 0 82.914,50.448 22.952,22.952 0 0 0 59.962,27.496 a 22.952,22.952 0 0 0 -0.06,0 z m 0.06,8.221 A 14.73,14.73 0 0 1 74.692,50.448 14.73,14.73 0 0 1 59.962,65.179 14.73,14.73 0 0 1 45.231,50.449 14.73,14.73 0 0 1 59.962,35.717 Z"
         id="path16" />
      <g
         style="line-height:1.25;-inkscape-font-specification:'Red Hat Display, Normal';font-variant-ligatures:normal;font-variant-caps:normal;font-variant-numeric:normal;font-variant-east-asian:normal"
         id="g20" />
    </g>
  </g>
</svg>
